{
    "_id": "641bec22fe9a99cab13564db",
    "name": "Org",
    "organizationSettings": [],
    "plugins": [
        {
            "pluginId": "API",
            "status": "FREE",
            "deleted": false,
            "policies": []
        },
        {
            "pluginId": "JS",
            "status": "FREE",
            "deleted": false,
            "policies": []
        }
    ],
    "slug": "Org",
    "userRoles": [],
    "createdAt": "2023-03-23T06:05:22.418Z",
    "deleted": false,
    "policies": []
}